{ 
    "V1725 Waveforms" : { 
	"MaxChannels" : 16,
	"MaxModules" : 4,
	"WebserverName" : "V1725_UW"
    },
    "Pulse Heights" : { 
	"MaxChannels" : 16,
	"MaxModules" : 4,
	"WebserverName" : "PulseHeight"
    },
    "Summary Histograms" : { 
	"WebserverName" : {"Baseline" : "Baseline_Summary",
			   "Baseline RMS" : "Baseline_RMS_Summary",
			   "Pulses Vs Time" : "Pulses_Vs_Time"}
    },
    "DisplaySettings" : {
	"DisplayStyle" : "root"
    }

} 
